[
  {
    "_id": "8c3cdca9-2184-4251-a24d-bcdd60990b3e",
    "last_name": "Harris",
    "first_name": "Mike",
    "email_address": "mharris@updox.com",
    "specialty": "Pediatrics",
    "practice_name": "Harris Pediatrics"
  },
  {
    "_id": "eb6689fd-6c62-4a72-8e76-3d61bd078605",
    "last_name": "Juday",
    "first_name": "Tobin",
    "email_address": "tjuday@updox.com",
    "specialty": "General Medicine",
    "practice_name": "Juday Family Practice"
  },
  {
    "_id": "6c39bc52-5bec-4404-b749-5c1342fea589",
    "last_name": "Carlson",
    "first_name": "Mike",
    "email_address": "mcarlson@updox.com",
    "specialty": "Orthopedics",
    "practice_name": "Carlson Orthopedics"
  }
]
